1	1
2	2
3	3
4	2
5	5
6	6
7	5
8	4
9	6
10	6
11	15
12	12
13	12
14	30
15	15
16	4
17	17
18	18
19	10
20	20
21	21
22	14
23	24
24	90
25	63
26	26
27	27
28	18
29	66
30	12
31	210
32	12
33	33
34	90
35	35
36	30
37	110
38	120
39	120
40	26
41	41
42	42
43	105
44	30
45	45
46	30
47	60
48	48
49	120
50	50
51	42
52	510
53	53
54	1680
55	120
56	1584
57	57
58	336
59	276
60	60
61	2665
62	720
63	8415
64	12
65	720
66	66
67	120
68	68
69	840
70	336
71	4347
72	210
73	286
74	870
75	66
76	50
77	621
78	78
79	24
80	210
81	9690
82	55440
83	3465
84	1122
85	5040
86	370
87	87
88	720
89	630
90	90
91	783
92	92
93	78
94	50
95	95
96	96
97	6435
98	132
99	780
100	120
101	3360
102	90
103	9690
104	1722
105	105
106	4620
107	360
108	792
109	1008
110	646
111	111
112	74
113	840
114	120
115	180
116	116
117	117
118	120120
119	90
120	120
121	1020
122	122
123	123
124	10080
125	23985
126	126
127	78
128	24
129	1326
130	86
131	131
132	1980
133	25155
134	2862
135	11130
136	90
137	137
138	630
139	65520
140	9240
141	141
142	3640
143	630315
144	330
145	1150
146	390
147	147
148	98
149	1680
150	150
151	440895
152	152
153	276
154	840
155	155
156	5040
157	52785
158	27720
159	336
160	16218
161	153615
162	162
163	5040
164	4290
165	165
166	1680
167	462
168	14280
169	90
170	17160
171	315
172	14280
173	63189
174	4830
175	131040
176	720
177	150
178	148580
179	3360
180	180
181	5040
182	27840
183	840
184	9240
185	3417
186	186
187	31489185
188	188
189	14280
190	7560
191	55440
192	870
193	840
194	840
195	630
196	630
197	197
198	275310
199	6126120
200	8460
201	85008
202	134
203	308133
204	6642
205	120
206	206
207	207
208	4129650
209	3486
210	210
211	10140585
212	31374
213	198
214	55440
215	215
216	216
217	78540
218	116994
219	150
220	146
221	221
222	222
223	6310395
224	8010
225	140
226	1320
227	227
228	4600
229	829920
230	56088
231	630
232	42900
233	10560
234	2640
235	3034
236	42294
237	237
238	158
239	4560
240	1480290
241	2490075
242	242
243	1969065
244	742560
245	156600
246	246
247	9240
248	248
249	4950
250	55440
251	33630
252	1170
253	360360
254	12113640
255	255
256	24
257	8880
258	258
259	179520
260	260
261	222
262	174
263	134045
264	11130
265	6607440
266	266
267	3087942
268	1680
269	85680
270	1722
271	7395
272	272
273	273
274	55440
275	6507930
276	5040
277	630
278	855600
279	55440
280	186
281	281
282	1680
283	7800450
284	12882
285	444210
286	3960
287	91080
288	288
289	3360
290	180810
291	8275995
292	194
293	293
294	1380
295	64276905
296	59280
297	297
298	180180
299	7140
300	637560
301	9900
302	1260
303	258
304	431730
305	858
306	306
307	5170
308	308
309	55440
310	50310
311	42840
312	5040
313	1575169365